{

;============================================================
;============================================================
; RC Bandit
;============================================================
;============================================================
Name      	"Phantum"


;====================
; Model Filenames
;====================

MODEL 	0 	"cars\phantum\body.prm"
MODEL 	1 	"cars\phantum\F.prm"
MODEL 	2 	"cars\phantum\R.prm"
MODEL 	3 	"NONE"
MODEL 	4 	"NONE"
MODEL 	5 	"NONE"
MODEL 	6 	"NONE"
MODEL 	7 	"NONE"
MODEL 	8 	"NONE"
MODEL 	9 	"NONE"
MODEL 	10 	"NONE"
MODEL 	11 	"NONE"
MODEL 	12 	"NONE"
MODEL 	13 	"NONE"
MODEL 	14 	"NONE"
MODEL 	15 	"NONE"
MODEL 	16 	"NONE"
MODEL 	17 	"cars\misc\Aerial.m"
MODEL 	18 	"cars\misc\AerialT.m"
TPAGE 	"cars\phantum\car.bmp"
COLL 	"cars\phantum\hull.hul"
;)TCARBOX  	"cars/phantum/carbox.bmp" 
EnvRGB 	100 100 100

;====================
; Stuff mainly for frontend display and car selectability
;====================

BestTime   	TRUE
Selectable 	TRUE
;)CPUSelectable	true
Class      	0 			; Engine type (0=Elec, 1=Glow, 2=Other)
Obtain     	0 			; Obtain method
Rating     	1 			; Skill level (rookie, amateur, ...)
TopEnd     	3033.595215 			; Actual top speed (mph) for frontend bars
Acc        	8.28463 			; Acceleration rating (empirical)
Weight     	1.600000 			; Scaled weight (for frontend bars)
Handling   	40.000000 			; Handling ability (empirical and totally subjective)
Trans      	2 			; Transmission type (calculate in game anyway...)
MaxRevs    	0.500000 			; Max Revs (for rev counter)

;====================
; Handling related stuff
;====================
;)Statistics 	TRUE
SteerRate  	3.600000 			; Rate at which steer angle approaches value from input
SteerMod   	0.400000 			;
EngineRate 	4.500000 			; Rate at which Engine voltage approaches set value
TopSpeed   	35.200000 			; Car's theoretical top speed (not including friction...)
DownForceMod	3.000000 			; Down force modifier when car on floor
CoM        	0.000000 -9.000000 4.000000 		; Centre of mass relative to model centre
Weapon     	0.000000 -32.000000 64.000000 		; Weapon genration offset
	

;====================
; Car Body details
;====================

BODY {		; Start Body
ModelNum   	0 			; Model Number in above list
Offset     	0, 0, 0 		; Calculated in game
Mass       	1.600000
Inertia    	1050.000000 0.000000 0.000000
           	0.000000 1800.000000 0.000000
           	0.000000 0.000000 300.000000
Gravity		2200 			; No longer used
Hardness   	0.000000
Resistance 	0.001000 			; Linear air esistance
AngRes     	0.001000 			; Angular air resistance
ResMod     	30.000000 			; Ang air resistnce scale when in air
Grip       	0.010000 			; Converts downforce to friction value
StaticFriction 0.800000
KineticFriction 0.400000
}     		; End Body

;====================
; Car Wheel details
;====================

WHEEL 0 { 	; Start Wheel
ModelNum 	1
Offset1  	-20.500000 9.000000 39.500000
Offset2  	-0.000000 0.000000 0.000000
IsPresent   	TRUE
IsPowered   	FALSE
IsTurnable  	TRUE
SteerRatio  	-0.500000
EngineRatio 	5000.000000
Radius      	11.500000
Mass        	0.15000
Gravity     	2200.000000
MaxPos      	5.000000
SkidWidth   	10.000000
ToeIn       	0.000000
AxleFriction    	0.020000
Grip            	0.012000
StaticFriction  	1.500000
KineticFriction 	1.390000
}          	; End Wheel

WHEEL 1 { 	; Start Wheel
ModelNum 	2
Offset1  	20.500000 9.000000 39.500000
Offset2  	0.000000 0.000000 0.000000
IsPresent   	TRUE
IsPowered   	FALSE
IsTurnable  	TRUE
SteerRatio  	-0.500000
EngineRatio 	5000.000000
Radius      	11.500000
Mass        	0.150000
Gravity     	2200.000000
MaxPos      	5.000000
SkidWidth   	10.000000
ToeIn       	0.000000
AxleFriction    	0.020000
Grip            	0.012000
StaticFriction  	1.500000
KineticFriction 	1.390000
}          	; End Wheel

WHEEL 2 { 	; Start Wheel
ModelNum 	1
Offset1  	-21.000000 9.000000 -35.000000
Offset2  	-0.000000 0.000000 0.000000
IsPresent   	TRUE
IsPowered   	TRUE
IsTurnable  	FALSE
SteerRatio  	1.000000
EngineRatio 	17500.000000
Radius      	11.500000
Mass        	0.15000
Gravity     	2200.000000
MaxPos      	5.000000
SkidWidth   	10.000000
ToeIn       	0.000000
AxleFriction    	0.050000
Grip            	0.015000
StaticFriction  	1.500000
KineticFriction 	1.400000
}          	; End Wheel

WHEEL 3 { 	; Start Wheel
ModelNum 	2
Offset1  	21.000000 9.000000 -35.000000
Offset2  	0.000000 0.000000 0.000000
IsPresent   	TRUE
IsPowered   	TRUE
IsTurnable  	FALSE
SteerRatio  	1.000000
EngineRatio 	17500.000000
Radius      	11.500000
Mass        	0.15000
Gravity     	2200.000000
MaxPos      	5.000000
SkidWidth   	10.000000
ToeIn       	0.000000
AxleFriction    	0.050000
Grip            	0.015000
StaticFriction  	1.500000
KineticFriction 	1.400000
}          	; End Wheel


;====================
; Car Spring details
;====================

SPRING 0 { 	; Start Spring
ModelNum    	-1
Offset      	-6.000000 -10.000000 41.000000
Length      	0.000000
Stiffness   	500.000000
Damping     	11.000000
Restitution 	-0.950000
}           	; End Spring

SPRING 1 { 	; Start Spring
ModelNum    	-1
Offset      	6.000000 -10.000000 41.000000
Length      	0.000000
Stiffness   	500.000000
Damping     	11.000000
Restitution 	-0.950000
}           	; End Spring

SPRING 2 { 	; Start Spring
ModelNum    	-1
Offset      	-8.000000 -12.000000 -38.000000
Length      	10.000000
Stiffness   	500.000000
Damping     	11.000000
Restitution 	-0.950000
}           	; End Spring

SPRING 3 { 	; Start Spring
ModelNum    	-1
Offset      	8.000000 -12.000000 -38.000000
Length      	0.000000
Stiffness   	500.000000
Damping     	11.000000
Restitution 	-0.950000
}           	; End Spring


;====================
; Car Pin details
;====================

PIN 0 {    	; Start Pin
ModelNum    	-1
Offset      	0.000000 0.000000 0.000000
Length      	-1.350000
}           	; End Pin

PIN 1 {    	; Start Pin
ModelNum    	-1
Offset      	0.000000 0.000000 0.000000
Length      	-1.350000
}           	; End Pin

PIN 2 {    	; Start Pin
ModelNum    	-1
Offset      	0.000000 0.000000 0.000000
Length      	0.000000
}           	; End Pin

PIN 3 {    	; Start Pin
ModelNum    	-1
Offset      	0.000000 0.000000 0.000000
Length      	0.000000
}           	; End Pin


;====================
; Car axle details
;====================

AXLE 0 {   	; Start Axle
ModelNum    	-1
Offset      	-7.000000 7.000000 42.000000
Length      	12.000000
}           	; End axle

AXLE 1 {   	; Start Axle
ModelNum    	-1
Offset      	7.000000 7.000000 42.000000
Length      	12.000000
}           	; End axle

AXLE 2 {   	; Start Axle
ModelNum    	-1
Offset      	-7.000000 7.000000 -30.000000
Length      	12.000000
}           	; End axle

AXLE 3 {   	; Start Axle
ModelNum    	-1
Offset      	7.000000 7.000000 -30.000000
Length      	12.000000
}           	; End axle


;====================
; Car spinner details
;====================

SPINNER {   	; Start spinner
ModelNum    	-1
Offset      	0.000000 0.000000 0.000000
Axis        	0.000000 1.000000 0.000000
AngVel      	0.000000
}           	; End Spinner


;====================
; Car Aerial details
;====================

AERIAL {    	; Start Aerial
SecModelNum 	17
TopModelNum 	18
Offset      	18.000000 -10.000000 30.000000
Direction   	0.000000 -1.000000 0.000000
Length      	25.000000
Stiffness   	2000.000000
Damping     	5.500000
}           	; End Aerial


;====================
; Car AI details
;====================

AI {        	 ;Start AI
UnderThresh 	64.660004
UnderRange  	1915.359985
UnderFront	 	450.000000
UnderRear   	898.355530
UnderMax    	0.830000
OverThresh  	2510.375977
OverRange   	134.339996
OverMax     	1.000000
OverAccThresh  	124.318031
OverAccRange   	854.917969
PickupBias     	22936
BlockBias      	9830
OvertakeBias   	16383
Suspension     	22936
Aggression     	0
}           	; End AI

}

